cross_validation
…
## [1] 0.2437185

rmse(wiggly_mod, test_df)

## [1] 0.2996658

Same process using modelr

cv_df = 
  crossv_mc(nonlin_df, 100) #80:20 is the default split for this function

cv_df %>% pull(train) %>% .[[1]] %>% as_tibble #can change in brackets number to look at each iteration previously created 

## # A tibble: 79 x 3
##       id     x      y
##    <int> <dbl>  <dbl>
##  1     1 0.269  0.732
##  2     4 0.501  0.182
##  3     5 0.407  0.658
##  4     6 0.833 -1.69 
##  5     7 0.289  1.08 
##  6     8 0.597  0.285
##  7     9 0.551  0.339
##  8    10 0.470  0.666
##  9    11 0.991 -3.58 
## 10    12 0.734 -1.28 
## #  with 69 more rows
…
